<svg width="80" height="80" viewBox="0 0 80 80" fill="none" xmlns="http://www.w3.org/2000/svg">
<g filter="url(#filter0_d_101_19981)">
<path d="M5 29.8889C5 21.177 5 16.821 6.69545 13.4935C8.18682 10.5665 10.5665 8.18682 13.4935 6.69545C16.821 5 21.177 5 29.8889 5H50.1111C58.823 5 63.179 5 66.5065 6.69545C69.4335 8.18682 71.8132 10.5665 73.3045 13.4935C75 16.821 75 21.177 75 29.8889V50.1111C75 58.823 75 63.179 73.3045 66.5065C71.8132 69.4335 69.4335 71.8132 66.5065 73.3045C63.179 75 58.823 75 50.1111 75H29.8889C21.177 75 16.821 75 13.4935 73.3045C10.5665 71.8132 8.18682 69.4335 6.69545 66.5065C5 63.179 5 58.823 5 50.1111V29.8889Z" fill="white"/>
<path d="M61.2313 15H53.103V26.7781H64.9967V18.3211C64.9999 18.3211 64.409 15.3212 61.2313 15Z" fill="#1967D2"/>
<path d="M53.1063 64.9452V64.9741V64.9998L65 53.2217H64.8934L53.1063 64.9452Z" fill="#1967D2"/>
<path d="M64.999 53.2218V53.1162L64.8934 53.2218H64.999Z" fill="#FBBC05"/>
<path d="M65 26.7783H53.1063V53.1161H65V26.7783Z" fill="#FBBC05"/>
<path d="M64.8934 53.2217H53.1063V64.9452L64.8934 53.2217Z" fill="#EA4335"/>
<path d="M53.1063 53.2218H64.8934L65 53.1162H53.1063V53.2218Z" fill="#EA4335"/>
<path d="M53.0773 64.9741H53.1061V64.9453L53.0773 64.9741Z" fill="#34A853"/>
<path d="M26.6257 53.1162V64.9746H53.0773L53.1064 53.1162H26.6257Z" fill="#34A853"/>
<path d="M53.1061 53.2222V53.1162L53.0773 64.9746L53.1061 64.9457V53.2222Z" fill="#34A853"/>
<path d="M15 53.1162V61.3612C15.1066 64.0367 18.0001 64.9746 18.0001 64.9746H26.6257V53.1162H15Z" fill="#188038"/>
<path d="M26.6257 26.7781H53.1063V15H18.3359C18.3359 15 15.2131 15.3212 15 18.6391V53.1159H26.6257V26.7781Z" fill="#4285F4"/>
<path d="M35.289 47.7852C34.6832 47.7852 34.099 47.7063 33.5364 47.5485C32.9883 47.3907 32.4835 47.1539 32.0219 46.8383C31.5603 46.5083 31.1492 46.0995 30.7886 45.6117C30.4424 45.1239 30.1756 44.5572 29.988 43.9116L32.6493 42.8571C32.8369 43.5745 33.1542 44.1196 33.6014 44.4926C34.0485 44.8513 34.6111 45.0306 35.289 45.0306C35.5919 45.0306 35.8804 44.9876 36.1545 44.9015C36.4285 44.8011 36.6665 44.6648 36.8685 44.4926C37.0704 44.3205 37.2291 44.1196 37.3445 43.8901C37.4743 43.6462 37.5392 43.3736 37.5392 43.0723C37.5392 42.4411 37.3012 41.9461 36.8252 41.5875C36.3636 41.2288 35.7217 41.0495 34.8996 41.0495H33.623V38.4886H34.7914C35.0799 38.4886 35.3611 38.4527 35.6352 38.381C35.9093 38.3093 36.1473 38.2017 36.3492 38.0582C36.5656 37.9004 36.7315 37.7067 36.8468 37.4772C36.9767 37.2333 37.0416 36.9535 37.0416 36.6379C37.0416 36.1501 36.8685 35.7556 36.5223 35.4543C36.1761 35.1387 35.7073 34.9809 35.1159 34.9809C34.4812 34.9809 33.9908 35.153 33.6446 35.4973C33.3129 35.8273 33.0821 36.2003 32.9523 36.6164L30.3559 35.5619C30.4857 35.2032 30.6804 34.8374 30.94 34.4644C31.1997 34.077 31.5242 33.7327 31.9137 33.4314C32.3176 33.1158 32.7864 32.8647 33.3201 32.6782C33.8538 32.4774 34.4668 32.377 35.1592 32.377C35.866 32.377 36.5079 32.4774 37.0849 32.6782C37.6763 32.8791 38.1811 33.1588 38.5994 33.5175C39.0177 33.8618 39.3423 34.2779 39.5731 34.7657C39.8039 35.2391 39.9193 35.7556 39.9193 36.3151C39.9193 36.7455 39.8616 37.1328 39.7462 37.4772C39.6452 37.8215 39.5082 38.1299 39.3351 38.4025C39.162 38.6751 38.96 38.9118 38.7292 39.1127C38.5129 39.2992 38.2893 39.4498 38.0585 39.5646V39.7368C38.7509 40.0093 39.3206 40.4469 39.7678 41.0495C40.2294 41.652 40.4602 42.4124 40.4602 43.3306C40.4602 43.9762 40.3376 44.5716 40.0923 45.1167C39.8471 45.6475 39.4937 46.1138 39.0321 46.5155C38.585 46.9172 38.0441 47.2257 37.4094 47.4409C36.7747 47.6704 36.0679 47.7852 35.289 47.7852Z" fill="#4285F4"/>
<path d="M45.6271 47.4409V36.0353L43.0091 37.1328L41.9705 34.7441L46.3195 32.7213H48.4615V47.4409H45.6271Z" fill="#4285F4"/>
</g>
<defs>
<filter id="filter0_d_101_19981" x="-2" y="-1" width="84" height="84" filterUnits="userSpaceOnUse" color-interpolation-filters="sRGB">
<feFlood flood-opacity="0" result="BackgroundImageFix"/>
<feColorMatrix in="SourceAlpha" type="matrix" values="0 0 0 0 0 0 0 0 0 0 0 0 0 0 0 0 0 0 127 0" result="hardAlpha"/>
<feOffset dy="1"/>
<feGaussianBlur stdDeviation="1"/>
<feColorMatrix type="matrix" values="0 0 0 0 0.0627451 0 0 0 0 0.0941176 0 0 0 0 0.156863 0 0 0 0.05 0"/>
<feBlend mode="normal" in2="BackgroundImageFix" result="effect1_dropShadow_101_19981"/>
<feBlend mode="normal" in="SourceGraphic" in2="effect1_dropShadow_101_19981" result="shape"/>
</filter>
</defs>
</svg>
