<svg width="2548" height="2549" viewBox="0 0 2548 2549" fill="none" xmlns="http://www.w3.org/2000/svg">
<path d="M2075.47 1491.93C2090.03 1510.97 2103.88 1530.41 2117.01 1550.21C2283.41 1502.22 2430.52 1402.62 2547.83 1274.17C2262.79 941.849 1747.72 862.17 1381.36 1102C1372.69 1107.62 1364.13 1113.44 1355.65 1119.48V1119.52C1355.45 1119.66 1355.24 1119.81 1355.04 1119.96C1355.07 1119.84 1355.08 1119.73 1355.11 1119.61L1355.13 1119.58C1365.93 1063.77 1383.23 1010.01 1406.13 959.103C1406.13 959.103 1406.13 959.103 1406.17 959.076C1517.63 711.41 1762.21 531.223 2038.32 509.41C2027.68 632.09 1987.44 750.676 1921 854.343C1945.32 855.876 1969.73 858.263 1994.16 861.53C2017.92 864.69 2041.45 868.65 2064.75 873.356C2148.48 721.77 2182.07 547.316 2174.19 373.53C1737.64 340.103 1317.09 647.97 1227.61 1076.61C1225.48 1086.72 1223.53 1096.89 1221.81 1107.16L1221.84 1107.18C1221.83 1107.26 1221.81 1107.36 1221.8 1107.44C1221.79 1107.42 1221.77 1107.41 1221.76 1107.38V1107.34C1189.93 1060.25 1164.15 1010.01 1144.35 957.81C1144.35 957.81 1144.35 957.809 1144.35 957.756C1048.03 703.823 1093.57 403.463 1273.39 192.81C1352.61 287.076 1408.01 399.383 1434.33 519.663C1452.61 503.556 1471.57 487.969 1491.15 473.023C1510.19 458.463 1529.63 444.61 1549.43 431.476C1501.44 265.063 1401.84 117.969 1273.39 0.649414C941.066 285.703 861.386 800.77 1101.21 1167.13C1106.84 1175.78 1112.65 1184.36 1118.69 1192.84H1118.73C1118.91 1193.08 1119.08 1193.32 1119.25 1193.56C1063.81 1182.34 1010.13 1164.78 959.146 1141.58C713.146 1029.6 529.346 787.676 508.72 509.436C631.226 520.009 749.68 560.569 852.813 626.223C855.666 577.729 861.946 529.836 871.573 482.73C720.573 401.343 546.64 364.25 372.826 373.53C343.973 826.023 647.48 1223.76 1071.76 1319.17C1083.61 1321.84 1095.57 1324.18 1107.61 1326.37C1060.56 1357.57 1010.28 1383.05 957.906 1402.66C704.773 1497.42 403.746 1456.33 192.413 1274.17C286.52 1195.02 398.947 1139.94 518.307 1113.44C486.04 1077.13 456.6 1038.82 430.107 998.703C265.786 1047.93 116.56 1144.69 0.226318 1274.17C299.786 1614.52 795.626 1681.14 1163.11 1448.61C1173.08 1442.3 1182.92 1435.69 1192.69 1428.94C1181.48 1484.24 1163.95 1537.78 1140.8 1588.65C1028.81 1834.65 786.893 2018.45 508.653 2039.06C519.226 1916.57 559.786 1798.12 625.44 1694.98C576.946 1692.12 529.053 1685.85 481.946 1676.21C400.56 1827.21 363.466 2001.16 372.76 2174.97C825.24 2203.81 1222.97 1900.3 1318.39 1476.04C1321.01 1464.36 1323.33 1452.57 1325.49 1440.73C1356.73 1487.82 1382.25 1538.16 1401.88 1590.58C1496.64 1843.72 1455.55 2144.74 1273.39 2356.06C1194.24 2261.97 1139.16 2149.54 1112.65 2030.18C1076.35 2062.45 1038.04 2091.88 997.92 2118.38C1047.15 2282.7 1143.91 2431.93 1273.39 2548.26C1613.73 2248.7 1680.36 1752.85 1447.83 1385.38C1441.55 1375.45 1434.97 1365.66 1428.25 1355.93C1484.04 1366.73 1537.79 1384.01 1588.68 1406.92C1588.68 1406.92 1588.68 1406.92 1588.72 1406.96C1836.39 1518.4 2016.57 1763 2038.39 2039.09C1915.69 2028.45 1797.12 1988.22 1693.45 1921.77C1691.91 1946.1 1689.52 1970.52 1686.27 1994.94C1683.09 2018.69 1679.13 2042.24 1674.43 2065.52C1826.03 2149.26 2000.47 2182.85 2174.25 2174.97C2207.68 1738.42 1899.81 1317.88 1471.17 1228.4C1461.17 1226.29 1451.11 1224.36 1440.95 1222.65C1441 1222.61 1441.05 1222.58 1441.09 1222.54H1441.15C1488.24 1190.72 1538.48 1164.93 1590.68 1145.13C1590.68 1145.13 1590.68 1145.13 1590.72 1145.13C1844.65 1048.81 2145.03 1094.36 2355.68 1274.17C2261.4 1353.4 2149.11 1408.78 2028.81 1435.12C2044.93 1453.4 2060.51 1472.36 2075.47 1491.93Z" fill="url(#paint0_linear_20_64455)"/>
<defs>
<linearGradient id="paint0_linear_20_64455" x1="0.226318" y1="1274.46" x2="2547.83" y2="1274.46" gradientUnits="userSpaceOnUse">
<stop stop-color="#00A650"/>
<stop offset="1" stop-color="#007D8E"/>
</linearGradient>
</defs>
</svg>
