<svg width="46" height="46" viewBox="0 0 46 46" fill="none" xmlns="http://www.w3.org/2000/svg">
<g filter="url(#filter0_dd_24_55919)">
<path d="M35.5833 25.4145C35.8119 25.7135 36.0294 26.0187 36.2356 26.3296C38.8482 25.5762 41.158 24.0123 42.9998 21.9955C38.5244 16.7778 30.4373 15.5267 24.6851 19.2922C24.5491 19.3806 24.4147 19.4718 24.2815 19.5667V19.5673C24.2784 19.5696 24.275 19.5719 24.2719 19.5742C24.2723 19.5723 24.2725 19.5706 24.2729 19.5688L24.2733 19.5683C24.4429 18.692 24.7144 17.8479 25.0741 17.0486C25.0741 17.0486 25.0741 17.0486 25.0747 17.0482C26.8246 13.1596 30.6649 10.3305 35 9.98803C34.833 11.9142 34.2012 13.7761 33.158 15.4038C33.5398 15.4279 33.9232 15.4654 34.3067 15.5167C34.6797 15.5663 35.0492 15.6284 35.415 15.7023C36.7297 13.3223 37.257 10.5832 37.1333 7.85458C30.2791 7.32975 23.6761 12.1636 22.2712 18.8936C22.2377 19.0523 22.2071 19.212 22.1801 19.3732L22.1805 19.3736C22.1803 19.3749 22.1801 19.3764 22.1799 19.3776C22.1797 19.3774 22.1795 19.3772 22.1793 19.3768V19.3762C21.6795 18.6368 21.2747 17.8479 20.9638 17.0283C20.9638 17.0283 20.9638 17.0283 20.9638 17.0275C19.4515 13.0405 20.1666 8.32457 22.9898 5.01711C24.2338 6.49718 25.1036 8.26051 25.5169 10.149C25.8039 9.89613 26.1016 9.6514 26.4089 9.41672C26.7078 9.18811 27.0131 8.97061 27.3239 8.7644C26.5705 6.15155 25.0067 3.84204 22.9898 2C17.7721 6.47561 16.521 14.5627 20.2866 20.3149C20.3749 20.4507 20.4662 20.5853 20.561 20.7185H20.5616C20.5644 20.7223 20.5671 20.726 20.5698 20.7298C19.6993 20.5537 18.8565 20.278 18.056 19.9138C14.1935 18.1555 11.3077 14.3571 10.9838 9.98845C12.9073 10.1545 14.7671 10.7913 16.3864 11.8221C16.4312 11.0607 16.5298 10.3087 16.681 9.56913C14.3101 8.29128 11.5792 7.70888 8.85018 7.85458C8.39716 14.9592 13.1625 21.204 19.8241 22.702C20.0102 22.7439 20.198 22.7808 20.387 22.8151C19.6483 23.305 18.8588 23.705 18.0365 24.013C14.0621 25.5008 9.33566 24.8556 6.01752 21.9955C7.49508 20.7528 9.26029 19.888 11.1344 19.4718C10.6277 18.9018 10.1655 18.3003 9.74954 17.6704C7.16955 18.4433 4.82655 19.9625 3 21.9955C7.70338 27.3393 15.4886 28.3854 21.2583 24.7344C21.4149 24.6354 21.5694 24.5315 21.7229 24.4256C21.5468 25.2938 21.2715 26.1345 20.9081 26.9331C19.1498 30.7956 15.3514 33.6814 10.9828 34.0051C11.1488 32.0818 11.7856 30.222 12.8165 28.6027C12.0551 28.5577 11.3031 28.4593 10.5635 28.3079C9.28562 30.6788 8.70322 33.4099 8.84913 36.1389C15.9535 36.5917 22.1983 31.8264 23.6964 25.165C23.7376 24.9816 23.7741 24.7966 23.808 24.6107C24.2985 25.3501 24.6992 26.1403 25.0073 26.9635C26.4951 30.9379 25.8499 35.6643 22.9898 38.9823C21.7472 37.5049 20.8824 35.7397 20.4662 33.8656C19.8961 34.3723 19.2947 34.8343 18.6648 35.2505C19.4377 37.8304 20.9569 40.1735 22.9898 42C28.3336 37.2966 29.3797 29.5112 25.7287 23.7417C25.6301 23.5857 25.5269 23.432 25.4214 23.2792C26.2973 23.4488 27.1412 23.7201 27.9403 24.0798C27.9403 24.0798 27.9403 24.0798 27.9409 24.0804C31.8295 25.8301 34.6586 29.6706 35.0011 34.0055C33.0747 33.8384 31.213 33.2068 29.5853 32.1634C29.561 32.5455 29.5235 32.9288 29.4725 33.3123C29.4226 33.6852 29.3605 34.0549 29.2866 34.4204C31.6668 35.7353 34.4057 36.2627 37.1343 36.1389C37.6591 29.2847 32.8254 22.6817 26.0953 21.2768C25.9383 21.2437 25.7802 21.2134 25.6207 21.1866C25.6215 21.186 25.6224 21.1855 25.623 21.1849H25.6238C26.3632 20.6852 27.1521 20.2803 27.9717 19.9694C27.9717 19.9694 27.9717 19.9694 27.9723 19.9694C31.9593 18.4571 36.6754 19.1723 39.9829 21.9955C38.5026 23.2394 36.7395 24.1091 34.8508 24.5225C35.1039 24.8095 35.3484 25.1072 35.5833 25.4145Z" fill="url(#paint0_linear_24_55919)"/>
</g>
<defs>
<filter id="filter0_dd_24_55919" x="0" y="0" width="46" height="46" filterUnits="userSpaceOnUse" color-interpolation-filters="sRGB">
<feFlood flood-opacity="0" result="BackgroundImageFix"/>
<feColorMatrix in="SourceAlpha" type="matrix" values="0 0 0 0 0 0 0 0 0 0 0 0 0 0 0 0 0 0 127 0" result="hardAlpha"/>
<feOffset dy="1"/>
<feGaussianBlur stdDeviation="1"/>
<feColorMatrix type="matrix" values="0 0 0 0 0.0627451 0 0 0 0 0.0941176 0 0 0 0 0.156863 0 0 0 0.06 0"/>
<feBlend mode="normal" in2="BackgroundImageFix" result="effect1_dropShadow_24_55919"/>
<feColorMatrix in="SourceAlpha" type="matrix" values="0 0 0 0 0 0 0 0 0 0 0 0 0 0 0 0 0 0 127 0" result="hardAlpha"/>
<feOffset dy="1"/>
<feGaussianBlur stdDeviation="1.5"/>
<feColorMatrix type="matrix" values="0 0 0 0 0.0627451 0 0 0 0 0.0941176 0 0 0 0 0.156863 0 0 0 0.1 0"/>
<feBlend mode="normal" in2="effect1_dropShadow_24_55919" result="effect2_dropShadow_24_55919"/>
<feBlend mode="normal" in="SourceGraphic" in2="effect2_dropShadow_24_55919" result="shape"/>
</filter>
<linearGradient id="paint0_linear_24_55919" x1="3" y1="22.0001" x2="42.9998" y2="22.0001" gradientUnits="userSpaceOnUse">
<stop stop-color="#7951E7"/>
<stop offset="1" stop-color="#8165CC"/>
</linearGradient>
</defs>
</svg>
