<svg width="14" height="14" viewBox="0 0 14 14" fill="none" xmlns="http://www.w3.org/2000/svg">
<path d="M11.6666 3.5L5.24998 9.91667L2.33331 7" stroke="#9A7DDB" stroke-width="2" stroke-linecap="round" stroke-linejoin="round"/>
</svg>
