<svg width="9" height="8" viewBox="0 0 9 8" fill="none" xmlns="http://www.w3.org/2000/svg">
<path fill-rule="evenodd" clip-rule="evenodd" d="M7.39767 0.927098L2.62434 5.53377L1.35767 4.18043C1.12434 3.96043 0.757669 3.9471 0.491002 4.13377C0.231002 4.3271 0.157669 4.6671 0.317669 4.94043L1.81767 7.38043C1.96434 7.6071 2.21767 7.7471 2.50434 7.7471C2.77767 7.7471 3.03767 7.6071 3.18434 7.38043C3.42434 7.0671 8.00433 1.6071 8.00433 1.6071C8.60433 0.993765 7.87767 0.453765 7.39767 0.920432V0.927098Z" fill="#D0BF66"/>
</svg>
