<svg width="16" height="16" viewBox="0 0 16 16" fill="none" xmlns="http://www.w3.org/2000/svg">
<path d="M12 10L8 6L4 10" stroke="#5C6372" stroke-width="1.33" stroke-linecap="round" stroke-linejoin="round"/>
</svg>
