<svg width="24" height="24" viewBox="0 0 24 24" fill="none" xmlns="http://www.w3.org/2000/svg">
<path d="M10 3H6C5.46957 3 4.96086 3.21071 4.58579 3.58579C4.21071 3.96086 4 4.46957 4 5V19C4 20.1 4.9 21 6 21H10M16 17L21 12L16 7M19.8 12H9" stroke="#9A7DDB" stroke-width="1.33333" stroke-linecap="round" stroke-linejoin="round"/>
</svg>
