<svg width="15" height="13" viewBox="0 0 15 13" fill="none" xmlns="http://www.w3.org/2000/svg">
<path fill-rule="evenodd" clip-rule="evenodd" d="M12.9458 0.621934L4.59246 8.6836L2.3758 6.31527C1.96747 5.93027 1.3258 5.90693 0.859132 6.2336C0.404132 6.57193 0.275798 7.16693 0.555798 7.64527L3.1808 11.9153C3.43747 12.3119 3.8808 12.5569 4.38246 12.5569C4.8608 12.5569 5.3158 12.3119 5.57247 11.9153C5.99247 11.3669 14.0075 1.81193 14.0075 1.81193C15.0575 0.7386 13.7858 -0.206399 12.9458 0.610268V0.621934Z" fill="#26FF9A"/>
</svg>
